{
  "project_info": {
    "project_number": "386029023092",
    "firebase_url": "https://tinkoffchat.firebaseio.com",
    "project_id": "tinkoffchat",
    "storage_bucket": "tinkoffchat.appspot.com"
  },
  "client": [
    {
      "client_info": {
        "mobilesdk_app_id": "1:386029023092:android:bbd416c02a00870d",
        "android_client_info": {
          "package_name": "karpov.hamster.prodDebug"
        }
      },
      "oauth_client": [
        {
          "client_id": "386029023092-6543lqqa3qss3c0rhh5d6v8rrp683s63.apps.googleusercontent.com",
          "client_type": 1,
          "android_info": {
            "package_name": "karpov.hamster.prodDebug",
            "certificate_hash": "4274771f86df11fc693c95d48753fa7ddc6e83a4"
          }
        },
        {
          "client_id": "386029023092-6qbqqu8kkrivduscqc5ql6tuii6u74nq.apps.googleusercontent.com",
          "client_type": 1,
          "android_info": {
            "package_name": "karpov.hamster.prodDebug",
            "certificate_hash": "b814416d94fe54458050dae10174584d4552295a"
          }
        },
        {
          "client_id": "386029023092-jsmc4omk5326gkm4cerla66ckaql7kli.apps.googleusercontent.com",
          "client_type": 3
        }
      ],
      "api_key": [
        {
          "current_key": "AIzaSyCsy-pHMw9sEWbLCUatnfLxkoiBH3_S7a0"
        }
      ],
      "services": {
        "analytics_service": {
          "status": 1
        },
        "appinvite_service": {
          "status": 2,
          "other_platform_oauth_client": [
            {
              "client_id": "386029023092-jsmc4omk5326gkm4cerla66ckaql7kli.apps.googleusercontent.com",
              "client_type": 3
            }
          ]
        },
        "ads_service": {
          "status": 2
        }
      }
    },
    {
      "client_info": {
        "mobilesdk_app_id": "1:386029023092:android:b271c32774ac921d",
        "android_client_info": {
          "package_name": "karpov.hamster.debug"
        }
      },
      "oauth_client": [
        {
          "client_id": "386029023092-de1oumhn34af6v2j1q017lqhdv4thobo.apps.googleusercontent.com",
          "client_type": 1,
          "android_info": {
            "package_name": "karpov.hamster.debug",
            "certificate_hash": "4274771f86df11fc693c95d48753fa7ddc6e83a4"
          }
        },
        {
          "client_id": "386029023092-kd8paaruit88bbgokjbf06mslfu2q418.apps.googleusercontent.com",
          "client_type": 1,
          "android_info": {
            "package_name": "karpov.hamster.debug",
            "certificate_hash": "b814416d94fe54458050dae10174584d4552295a"
          }
        },
        {
          "client_id": "386029023092-jsmc4omk5326gkm4cerla66ckaql7kli.apps.googleusercontent.com",
          "client_type": 3
        }
      ],
      "api_key": [
        {
          "current_key": "AIzaSyCsy-pHMw9sEWbLCUatnfLxkoiBH3_S7a0"
        }
      ],
      "services": {
        "analytics_service": {
          "status": 1
        },
        "appinvite_service": {
          "status": 2,
          "other_platform_oauth_client": [
            {
              "client_id": "386029023092-jsmc4omk5326gkm4cerla66ckaql7kli.apps.googleusercontent.com",
              "client_type": 3
            }
          ]
        },
        "ads_service": {
          "status": 2
        }
      }
    }
  ],
  "configuration_version": "1"
}